module gitlab.com/mironet/server

go 1.17

require (
	github.com/cenkalti/backoff/v4 v4.1.2
	github.com/gorilla/handlers v1.5.1
	github.com/gorilla/mux v1.8.0
	github.com/prometheus/client_golang v1.12.1
	github.com/sirupsen/logrus v1.8.1
	golang.org/x/sync v0.0.0-20210220032951-036812b2e83c
)

require (
	github.com/beorn7/perks v1.0.1 // indirect
	github.com/cespare/xxhash/v2 v2.1.2 // indirect
	github.com/felixge/httpsnoop v1.0.1 // indirect
	github.com/golang/protobuf v1.5.2 // indirect
	github.com/matttproud/golang_protobuf_extensions v1.0.1 // indirect
	github.com/prometheus/client_model v0.2.0 // indirect
	github.com/prometheus/common v0.32.1 // indirect
	github.com/prometheus/procfs v0.7.3 // indirect
	github.com/stretchr/testify v1.7.0 // indirect
	golang.org/x/sys v0.0.0-20220114195835-da31bd327af9 // indirect
	google.golang.org/protobuf v1.26.0 // indirect
	gopkg.in/yaml.v3 v3.0.0-20210107192922-496545a6307b // indirect
)
